<?xml version="1.0" encoding="UTF-8"?>
<svg width="35px" height="35px" viewBox="0 0 35 35" version="1.1" xmlns="http://www.w3.org/2000/svg" xmlns:xlink="http://www.w3.org/1999/xlink">
    <!-- Generator: Sketch 43.1 (39012) - http://www.bohemiancoding.com/sketch -->
    <title>Combined Shape</title>
    <desc>Created with Sketch.</desc>
    <defs></defs>
    <g id="Page-1" stroke="none" stroke-width="1" fill="none" fill-rule="evenodd">
        <g id="purchase_email_web" transform="translate(-240.000000, -1192.000000)" fill="#FFFFFF">
            <g id="Group-3" transform="translate(100.000000, 1150.000000)">
                <g id="Group-2" transform="translate(140.000000, 42.000000)">
                    <g id="Group-9">
                        <path d="M17.5,35 C7.83501688,35 0,27.1649831 0,17.5 C0,7.83501688 7.83501688,0 17.5,0 C27.1649831,0 35,7.83501688 35,17.5 C35,27.1649831 27.1649831,35 17.5,35 Z M24.8218263,20.4509883 C23.1728508,18.9525513 23.3934476,19.1945709 25.3805557,16.6029927 C26.5900747,15.0240755 27.0370582,14.072209 26.9229963,13.6478062 C26.8430951,13.3525192 26.3816368,13.3583091 25.8894917,13.3583091 C25.3967676,13.3583091 23.152007,13.3762579 22.9279362,13.3762579 C22.7038655,13.3762579 22.7090764,13.3745209 22.5458,13.470055 C22.3865766,13.5632731 22.2835157,13.7531832 22.2835157,13.7531832 C22.2835157,13.7531832 21.8156883,14.974861 21.1897956,16.0141556 C19.8720047,18.2062277 19.344541,18.3226056 19.1285761,18.1859629 C18.6271671,17.8686741 18.7528089,16.9115966 18.7528089,16.2312784 C18.7528089,14.1069486 19.0822566,13.2210875 18.1118623,12.9918058 C17.7905205,12.9159575 17.5531329,12.865585 16.7303821,12.8574791 C15.6731386,12.8470572 14.7791716,12.8603741 14.2725516,13.1029727 C13.935577,13.265091 13.6761876,13.6246464 13.834832,13.6454902 C14.030532,13.670966 14.4734626,13.7624471 14.7079553,14.0756829 C15.0119272,14.4798209 15.0009263,15.3876838 15.0009263,15.3876838 C15.0009263,15.3876838 15.1757826,17.8877809 14.5933144,18.1981218 C14.1943874,18.4117707 13.6478168,17.975788 12.4718796,15.9869429 C11.8697256,14.967913 11.4146361,13.8394533 11.4146361,13.8394533 C11.4146361,13.8394533 11.327208,13.6246464 11.1703006,13.5123216 C10.9798115,13.3756789 10.7152111,13.3241484 10.7152111,13.3241484 L7.90187819,13.3253064 C7.90187819,13.3253064 7.47921241,13.3027257 7.32346296,13.4827929 C7.18624133,13.6431743 7.31246207,13.9071956 7.31246207,13.9071956 C7.31246207,13.9071956 9.57690847,18.7620622 12.0098422,21.3640622 C13.730034,23.2041058 15.3060563,23.2764801 16.8948164,23.2764801 L18.0719117,23.2764801 C18.5600038,23.2764801 18.744703,23.1612603 18.744703,22.9036078 C18.744703,22.185076 18.8738187,21.485072 19.4806046,21.2992148 C20.2043474,21.0768811 21.1307382,22.7935989 22.1144493,23.4536523 C22.8578779,23.9539034 23.4241343,23.8450524 23.4241343,23.8450524 L26.053926,23.8091548 C26.053926,23.8091548 27.4301953,23.7257796 26.7770898,22.6662202 C26.7238223,22.5793711 26.3966906,21.882841 24.8218263,20.4509883 Z" id="Combined-Shape"></path>
                    </g>
                </g>
            </g>
        </g>
    </g>
</svg>