<?xml version="1.0" encoding="UTF-8"?>
<svg width="35px" height="35px" viewBox="0 0 35 35" version="1.1" xmlns="http://www.w3.org/2000/svg" xmlns:xlink="http://www.w3.org/1999/xlink">
    <!-- Generator: Sketch 43.1 (39012) - http://www.bohemiancoding.com/sketch -->
    <title>Group 11</title>
    <desc>Created with Sketch.</desc>
    <defs></defs>
    <g id="Page-1" stroke="none" stroke-width="1" fill="none" fill-rule="evenodd">
        <g id="purchase_email_web" transform="translate(-468.000000, -1192.000000)">
            <g id="Group-3" transform="translate(100.000000, 1150.000000)">
                <g id="Group-2" transform="translate(140.000000, 42.000000)">
                    <g id="Group-11" transform="translate(228.000000, 0.000000)">
                        <circle id="Oval-3-Copy-3" fill="#FFFFFF" cx="17.5" cy="17.5" r="17.5"></circle>
                        <path d="M26.1048,11.0493333 C25.4202,10.2526667 24.6528,10.2486667 24.3012,10.2026667 C21.7824,10 18.0036,10 18.0036,10 C17.9958,10 14.2176,10 11.6988,10.2026667 C11.3472,10.2486667 10.5798,10.2526667 9.8952,11.0493333 C9.3558,11.6566667 9.18,13.0346667 9.18,13.0346667 C9.18,13.0346667 9,14.6533333 9,16.2713333 L9,17.722 C9,19.3406667 9.18,20.9586667 9.18,20.9586667 C9.18,20.9586667 9.3558,22.3373333 9.8952,22.944 C10.5798,23.7406667 11.4792,23.7153333 11.88,23.7993333 C13.32,23.9526667 18,24 18,24 C18,24 21.7824,23.9933333 24.3012,23.7913333 C24.6528,23.7446667 25.4202,23.7406667 26.1048,22.944 C26.6442,22.3373333 26.82,20.9586667 26.82,20.9586667 C26.82,20.9586667 27,19.3406667 27,17.722 L27,16.2713333 C27,14.6533333 26.82,13.0346667 26.82,13.0346667 C26.82,13.0346667 26.6442,11.6566667 26.1048,11.0493333 Z M15.8586231,20.2646875 L15.8571429,13.5 L21.8571429,16.8947833 L15.8586231,20.2646875 L15.8586231,20.2646875 Z" id="Fill-11" fill="#801B7A"></path>
                    </g>
                </g>
            </g>
        </g>
    </g>
</svg>